Dungeon_Dungeon_Wall_Var2 658.9999 0 1130 270 180 0 0 0 0 908 0 Mage_Room 
Dungeon_Dungeon_Wall_Var3 1576 0 1060 270 231 0 0 0 0 909 1 Mage_Room 
Dungeon_Dungeon_Wall_Window 1401 0 1132 270 180 0 0 0 0 910 2 Mage_Room 
Dungeon_Dungeon_Wall_Var3 1806 0 776 270 231 0 0 0 0 909 3 Mage_Room 
Dungeon_Dungeon_Wall_Var3 1012 0 1130 270 180 0 0 0 0 909 4 Mage_Room 
Dungeon_Balcony 661 17 1131 270 0 0 0 0 0 912 5 Mage_Room 
Dungeon_Balcony 1047 17 1131 270 0 0 0 0 0 912 6 Mage_Room 
Dungeon_Balcony 1432 17 1131 270 0 0 0 0 0 912 7 Mage_Room 
Dungeon_Balcony 1815 17 1131 270 0 0 0 0 0 912 8 Mage_Room 
Dungeon_Balcony 661 17 733 270 0 0 0 0 0 912 9 Mage_Room 
Dungeon_Balcony 1047 17 733 270 0 0 0 0 0 912 10 Mage_Room 
Dungeon_Balcony 1815 17 733 270 0 0 0 0 0 912 11 Mage_Room 
Masterpf 1508 18.72269 1008 221.9999 0 
Dungeon_Dungeon_Wall_Window 1817 0 656 270 270 0 0 0 0 910 12 Mage_Room 
Dungeon_Desk 1469 19 1250 270 0 0 0 0 0 818 13 Mage_Room 
Dungeon_Shelf 1843 19 955.9999 270 322.9932 0 0 0 0 820 14 Mage_Room 
Dungeon_Shelf_Wall 1781 306 1100 270 321.1402 0 0 0 0 821 15 Mage_Room 
Dungeon_Steps_Small 1023 19 1209 270 89.34112 0 0 0 0 822 16 Mage_Room 
Dungeon_Table_Small 1348 19 1058 270 0 0 0 0 0 826 17 Mage_Room 
Dungeon_Shelf 1654.9 19 1179.4 270 322.9932 0 0 0 0 820 18 Mage_Room 
Dungeon_Shelf 1212 19 1267 270 270.3516 0 0 0 0 820 19 Mage_Room 
Dungeon_Table_Small 1418 19 849 270 86.66044 0 0 0 0 826 20 Mage_Room 
Dungeon_Stool_round 1666.1 18.7 988.2999 270 0 0 0 0 0 823 21 Mage_Room 
Dungeon_Stool_square 1311.634 18.72268 708.217 270 0 0 0 0 0 824 22 Mage_Room 
Dungeon_Scroll_Open 1354.5 105.7 1058.8 270 321 0 0 0 0 874 23 Mage_Room 
Dungeon_Scroll_Stack 1381.1 102.2 1128 270 19.48043 0 0 0 0 876 24 Mage_Room 
Dungeon_Scroll_Elder 1369.1 102.2018 1025.3 270 343.7517 0 0 0 0 873 25 Mage_Room 
Dungeon_Potion_Red 1337.1 102.2 906.5001 270 0 0 0 0 0 871 26 Mage_Room 
Dungeon_Potion_Green 1339.2 102.2 930.4 270 0 0 0 0 0 870 27 Mage_Room 
Dungeon_Potion_Blue 1359.7 102.2018 929 270 0 0 0 0 0 869 28 Mage_Room 
Dungeon_Pillar 1608 19 1324 270 0 0 0 0 0 911 29 Mage_Room 
Dungeon_Jar_Full 1297 102.2018 1051.6 270 0 0 0 0 0 862 30 Mage_Room 
Dungeon_Jar_Empty 1292.3 102.2018 1012.3 270 0 0 0 0 0 861 31 Mage_Room 
Dungeon_Jar_Big 1291.2 102.2 1082.8 270 0 0 0 0 0 860 32 Mage_Room 
Dungeon_Inkwell 1400.9 102.2 1076.6 270 0 0 0 0 0 859 33 Mage_Room 
Dungeon_CrystalBall_Stand 1307.306 102.2018 931.986 270 0 0 0 0 0 857 34 Mage_Room 
Dungeon_CrystalBall 1307.8 136.7 931.8 270 0 0 0 0 0 856 35 Mage_Room 
Dungeon_CoatHook_Full 1502 340 1324 270 270.0001 0 0 0 0 817 36 Mage_Room 
Dungeon_ChestSmall_Open 1302.3 102.2018 1127.494 270 286.6825 0 0 0 0 816 37 Mage_Room 
Dungeon_Chest_Open 1683 17 658 270 193.2593 0 0 0 0 814 38 Mage_Room 
Dungeon_ChestSmall_Closed 1342.63 102.2 1169.133 270 51.44733 0 0 0 0 815 39 Mage_Room 
Dungeon_Chest_Closed 1518.1 19 1211.3 270 36.07533 0 0 0 0 813 40 Mage_Room 
Dungeon_Chandelier_Small 1322.4 102.2 1031.4 270 0 0 0 0 0 855 41 Mage_Room 
Dungeon_Chandelier_Single 1292.2 102.2 1171.1 270 0 0 0 0 0 831 42 Mage_Room 
Dungeon_Chandelier_Ceiling 1553 483 1095 270 0 0 0 0 0 830 43 Mage_Room 
Dungeon_Chair 1450.954 18.7 1118.766 270 227.1233 0 0 0 0 812 44 Mage_Room 
Dungeon_Cauldron_Empty 1625.9 65 1190.7 270 0 0 0 0 0 810 45 Mage_Room 
Dungeon_Cauldron_Full 1744.1 166.4 1066.9 270 0 0 0 0 0 811 46 Mage_Room 
Dungeon_Carpet_Green 1092.5 18.7 1255 270 0 0 0 0 0 808 47 Mage_Room 
Dungeon_Carpet_Red 1486 19 1088 270 312.0009 0 0 0 0 809 48 Mage_Room 
Dungeon_Bucket 1313.7 66.9 709.4 270 90.61404 0 0 0 0 807 49 Mage_Room 
Dungeon_Book_Small_Green 1198.7 100.2 1255.4 270 267.2824 0 0 0 0 851 50 Mage_Room 
Dungeon_Book_Small_DeepRed 1808.7 176.9 975.7 0 336.1235 180 0 0 0 850 51 Mage_Room 
Dungeon_Book_Small_DeepRed 1178.2 101.5 1253.2 270 271.1433 0 0 0 0 850 52 Mage_Room 
Dungeon_Book_Red 1800.9 184 1011.9 0 144.8371 180 0 0 0 848 53 Mage_Room 
Dungeon_Book_Open 1384.9 102.2018 961.4 270 52.19871 0 0 0 0 847 54 Mage_Room 
Dungeon_Book_Green 1816.3 104.4 972.5001 270 320.8345 0 0 0 0 846 55 Mage_Room 
Dungeon_Book_Brown 1188.2 100.7 1262.5 270 269.9586 0 0 0 0 844 56 Mage_Room 
Dungeon_Book_Big_Red 1830.5 103.4 961.9 270 322.114 0 0 0 0 843 57 Mage_Room 
Dungeon_Book_Big_DeepRed 1802.9 103.3 1004.2 270 325.2571 0 0 0 0 841 58 Mage_Room 
Dungeon_Book_Big_Brown 1811.7 103 988 270 322.9371 0 0 0 0 840 59 Mage_Room 
Dungeon_Bone 1324.05 103.3 962.2772 270 50.27089 0 0 0 0 839 60 Mage_Room 
Dungeon_Bench 1209 20.7 958.7 270 0 0 0 0 0 806 61 Mage_Room 
Dungeon_Beaker_Full_Var2 1401.5 102.2 1003 270 0 0 0 0 0 837 62 Mage_Room 
Dungeon_Beaker_Empty 1341.3 102.2 989.6 270 0 0 0 0 0 835 63 Mage_Room 
Dungeon_Barrel_Closed 1743.7 20.7 1063.6 270 0 0 0 0 0 804 64 Mage_Room 
Dungeon_Barrel_Big 1888 19 750 270 271.3143 0 0 0 0 803 65 Mage_Room 
Dungeon_Bag 1821.5 15.3 999.5999 270 49.37675 0 0 0 0 802 66 Mage_Room 
Dungeon_Amphora 1324.5 79.5 1286.2 270 0 0 0 0 0 800 67 Mage_Room 
Dungeon_Bag 1852.213 15.3 961.9755 270 238.0433 0 0 0 0 802 68 Mage_Room 
Dungeon_Bag 1886.927 15.3 923.2576 270 75.14999 0 0 0 0 802 69 Mage_Room 
Dungeon_Book_Big_DeepRed 1613.1 103.3 1230.3 270 325.2571 0 0 0 0 841 70 Mage_Room 
Dungeon_Book_Big_Brown 1847.3 103 940.9 270 322.9371 0 0 0 0 840 71 Mage_Room 
Dungeon_Book_Green 1821.66 167.6897 982.4871 0.8667203 310.1688 359.8368 0 0 0 846 72 Mage_Room 
Dungeon_Potion_Red 1800.6 206.2 1014.6 270 0 0 0 0 0 871 73 Mage_Room 
Dungeon_Jar_Empty 1813.4 207.2 987.7001 270 0 0 0 0 0 861 74 Mage_Room 
Dungeon_Jar_Empty 1830 207.2 960.9 270 63.84401 0 0 0 0 861 75 Mage_Room 
Dungeon_ChestSmall_Closed 1304 102 877.0001 270 344.2507 0 0 0 0 815 76 Mage_Room 
Dungeon_Book_Open 1448.8 135.6 1243.6 324.1196 180.1517 180 0 0 0 847 77 Mage_Room 
Dungeon_Book_Small_Green 1500.1 121.8 1229.4 302.2237 0 0 0 0 0 851 78 Mage_Room 
Dungeon_Bucket 1670.2 24.7 1137.7 270 0 0 0 0 0 807 79 Mage_Room 
Dungeon_Book_Big_Red 1630.1 103.4 1219.4 270 322.114 0 0 0 0 843 80 Mage_Room 
Dungeon_Book_Big_Brown 1640.4 103 1199.3 270 322.9371 0 0 0 0 840 81 Mage_Room 
Dungeon_ChestSmall_Closed 1696 102 1146.6 270 344.2507 0 0 0 0 815 82 Mage_Room 
Dungeon_Scroll_Stack 1679.2 164.2 1137.5 270 323.9056 0 0 0 0 876 83 Mage_Room 
Dungeon_Book_Green 1656.5 104 1168.6 300.742 320.8345 0 0 0 0 846 84 Mage_Room 
Dungeon_Inkwell 1659.1 102.2 1151 270 0 0 0 0 0 859 85 Mage_Room 
Dungeon_Bag 1266.8 15.3 1273 270 355.3695 0 0 0 0 802 86 Mage_Room 
Dungeon_Bag 1219.8 15.3 1258.6 270 111.075 0 0 0 0 802 87 Mage_Room 
Dungeon_Jar_Big 1164.4 27.7 1256 270 0 0 0 0 0 860 88 Mage_Room 
Dungeon_Chandelier_Small 1643.6 161.9 1187.5 270 0 0 0 0 0 855 89 Mage_Room 
Dungeon_CrystalBall_Stand 1270.606 97.20179 1271.986 270 40.67601 0 0 0 0 857 90 Mage_Room 
Dungeon_CrystalBall 1270.859 131.7 1271.523 270 40.67601 0 0 0 0 856 91 Mage_Room 
Dungeon_Potion_Blue 1611.3 162.6 1220.6 270 0 0 0 0 0 869 92 Mage_Room 
Dungeon_Potion_Green 1630.4 163.5 1214.7 270 0 0 0 0 0 870 93 Mage_Room 
Dungeon_Book_Small_DeepRed 1690.54 220.4103 1123.213 0 336.1235 180 0 0 0 850 94 Mage_Room 
Dungeon_Book_Green 1703.5 211.2 1130 0.8667203 310.1688 359.8368 0 0 0 846 95 Mage_Room 
Dungeon_Book_Big_Red 1145.1 100 1259.9 270 270.5147 0 0 0 0 843 96 Mage_Room 
Dungeon_Book_Big_Brown 1164.5 100 1264.1 270 269.2213 0 0 0 0 840 97 Mage_Room 
Dungeon_Book_Big_Red 1214.7 100 1273.2 270 270.5147 0 0 0 0 843 98 Mage_Room 
Dungeon_Book_Big_DeepRed 1233.6 103.3 1261.8 270 273.6532 0 0 0 0 841 99 Mage_Room 
Dungeon_Book_Small_DeepRed 1658.587 81.38002 1000.443 358.3057 123.8624 180.0249 0 0 0 850 100 Mage_Room 
Dungeon_Book_Red 1684.3 91.2 974.2001 1.656652 292.5712 179.644 0 0 0 848 101 Mage_Room 
Dungeon_Book_Green 1651.475 72.20849 987.6314 359.3542 97.90956 0.6006162 0 0 0 846 102 Mage_Room 
Dungeon_Book_Big_DeepRed 1681.542 104.2 967.7679 0 317.5862 180 0 0 0 841 103 Mage_Room 
Dungeon_Book_Big_Brown 1658 121.1 1004.8 0 142.9371 180 0 0 0 840 104 Mage_Room 
Dungeon_Chandelier_Small 1667.7 129.8 984.7 270 0 0 0 0 0 855 105 Mage_Room 
Dungeon_Barrel_Closed 1487.8 20.7 697.8 270 0 0 0 0 0 804 106 Mage_Room 
Dungeon_Barrel_Closed 1398.2 20.7 697.8 270.0198 135.4322 0 0 0 0 804 107 Mage_Room 
Dungeon_Scroll_Stack 1323.438 102.2 813.6207 270 273.5699 0 0 0 0 876 108 Mage_Room 
Dungeon_Chandelier_Single 1537.7 102.2 832.6 270 0 0 0 0 0 831 109 Mage_Room 
Dungeon_Book_Open 1447.6 117.5 886.8 270 187.2823 0 0 0 0 847 110 Mage_Room 
Dungeon_Book_Big_DeepRed 1492.7 109.5 873.6 0 317.5862 180 0 0 0 841 111 Mage_Room 
Dungeon_Book_Big_Red 1451.9 110 883.5 0 270.5147 0 0 0 0 843 112 Mage_Room 
Dungeon_Jar_Big 1350 102.2 857.7 270 0 0 0 0 0 860 113 Mage_Room 
Dungeon_Pillar 2015 19 814.9999 270 0 0 0 0 0 911 114 Mage_Room 
Dungeon_Plate 1440 102.2 823.7001 270 0 0 0 0 0 867 115 Mage_Room 
Dungeon_Scroll_Big 1384.3 102.2017 825.5 270 47.96218 0 0 0 0 872 116 Mage_Room 
Dungeon_Skull 1383.7 102.2 866.0999 270 205.6528 0 0 0 0 877 117 Mage_Room 
Dungeon_WeaponRack_Small 1627.6 18.7 819.6 270 0 0 0 0 0 828 118 Mage_Room 
Dungeon_Skull 1657.818 206.5 1166.95 270 67.92957 0 0 0 0 877 119 Mage_Room 
Dungeon_Inkwell 1775 272.7 1084 270 0 0 0 0 0 859 120 Mage_Room 
Dungeon_Skull 1805.6 303.7 1040 270 67.92957 0 0 0 0 877 121 Mage_Room 
Dungeon_Chandelier_Small 1787.091 303.3 1063.183 270 47.19189 0 0 0 0 855 122 Mage_Room 
Dungeon_Potion_Blue 1753.8 302.8 1110 270 0 0 0 0 0 869 123 Mage_Room 
Dungeon_Beaker_Empty 1737.1 302.1 1127.3 270 0 0 0 0 0 835 124 Mage_Room 
Dungeon_Scroll_Big 1750 273.2 1113 270 47.96218 0 0 0 0 872 125 Mage_Room 
Dungeon_Beaker_Full_Var2 1766.5 302.5 1089.7 270 0 0 0 0 0 837 126 Mage_Room 
Dungeon_ChestSmall_Closed 1622.759 205 1214.193 270 327.1758 0 0 0 0 815 127 Mage_Room 
Dungeon_Amphora 1631.3 73.9 837 270 0 0 0 0 0 800 128 Mage_Room 
Dungeon_Chest_Closed 1265 19 823.6 270 355.707 0 0 0 0 813 129 Mage_Room 
Dungeon_Book_Small_DeepRed 1173.4 166.2 1247.9 0 279.3779 180 0 0 0 850 130 Mage_Room 
Dungeon_Book_Red 1138.851 173.3 1261.228 0 88.09153 180 0 0 0 848 131 Mage_Room 
Dungeon_Book_Small_Green 1137.3 181.2 1252.5 0 87.28239 180 0 0 0 851 132 Mage_Room 
Dungeon_Scroll_Stack 1273.6 161.3 1275.4 270 19.48043 0 0 0 0 876 133 Mage_Room 
Dungeon_Jar_Big 1226.6 161 1265.9 270 0 0 0 0 0 860 134 Mage_Room 
Dungeon_Jar_Full 1195 161.3 1253.9 270 0 0 0 0 0 862 135 Mage_Room 
Dungeon_Chandelier_Small 1287.4 251.4 1263.4 270 0 0 0 0 0 855 136 Mage_Room 
Dungeon_Scroll_Elder 1260.2 207 1270.8 270 343.7517 0 0 0 0 873 137 Mage_Room 
Dungeon_Book_Open 1166.1 205.5 1256.6 270 187.2823 0 0 0 0 847 138 Mage_Room 
Dungeon_Beaker_Empty 1211.1 205.2 1263.7 270 0 0 0 0 0 835 139 Mage_Room 
Dungeon_Chandelier_Single 1256.5 250.9 1265.5 270 0 0 0 0 0 831 140 Mage_Room 
Dungeon_Balcony 661 17 345 270 0 0 0 0 0 912 141 Mage_Room 
Dungeon_Balcony 1047 17 345 270 0 0 0 0 0 912 142 Mage_Room 
Dungeon_Balcony 1432 17 345 270 0 0 0 0 0 912 143 Mage_Room 
Dungeon_Balcony 1815 17 345 270 0 0 0 0 0 912 144 Mage_Room 
Dungeon_Balcony 1432 17 730 270 0 0 0 0 0 912 145 Mage_Room 
